{
    "editor": [
        {
            "icon": "",
            "key": "settings",
            "header": "Settings",
            "disabled": false,
            "fields": [
                {
                    "key": "Image",
                    "header": "Image",
                    "type": "image"
                },
                {
                    "key": "Price",
                    "header": "Price",
                    "type": "text"
                }
            ]
        }
    ],
    "config": {
        "settings": {
            "Image": "https://frontend.apps.playcent.com/c2890d7d0c8f474db5760881ebade468/assets/public_assets_image.jpg",
            "Price": "100"
        }
    }
}